javax/swing/RepaintManager$2@0#ch.usi.dag.typeparser.TypeNode@278e5f8e,run()V
com/sun/xml/internal/ws/client/AsyncResponseImpl@0#ch.usi.dag.typeparser.TypeNode@51cbd1d,run()V
javax/management/timer/TimerAlarmClock@0#ch.usi.dag.typeparser.TypeNode@18e6b4e2,run()V
java/util/concurrent/ConcurrentHashMap$MapReduceEntriesToDoubleTask@0#ch.usi.dag.typeparser.TypeNode@6eda3ade,exec()Z
sun/nio/ch/IOVecWrapper$Deallocator@0#ch.usi.dag.typeparser.TypeNode@f442b41,run()V
sun/awt/X11/XChoicePeer$2@0#ch.usi.dag.typeparser.TypeNode@7cb040b7,run()V
sun/print/ServiceNotifier@0#ch.usi.dag.typeparser.TypeNode@25b531b2,run()V
sun/swing/PrintingStatus$4@0#ch.usi.dag.typeparser.TypeNode@6d8c1584,run()V
sun/awt/shell/ShellFolder$1@0#ch.usi.dag.typeparser.TypeNode@4140f94c,call()L
java/util/concurrent/ExecutorCompletionService$QueueingFuture@0#ch.usi.dag.typeparser.TypeNode@201cc412,run()V
javax/swing/Timer$DoPostEvent@0#ch.usi.dag.typeparser.TypeNode@236a7f65,run()V
sun/nio/ch/AsynchronousChannelGroupImpl$4@0#ch.usi.dag.typeparser.TypeNode@8e654f7,run()V
sun/swing/FilePane$DetailsTableModel$1@0#ch.usi.dag.typeparser.TypeNode@4b330722,run()V
javax/swing/SwingWorker$SwingWorkerPropertyChangeSupport$1@0#ch.usi.dag.typeparser.TypeNode@7c0abd1,run()V
sun/font/SunFontManager$8@0#ch.usi.dag.typeparser.TypeNode@2edd66c9,run()V
java/util/ArraysParallelSortHelpers$FJInt$Merger@0#ch.usi.dag.typeparser.TypeNode@4aebdaff,exec()Z
java/awt/WaitDispatchSupport$2@0#ch.usi.dag.typeparser.TypeNode@369ad283,run()V
sun/awt/X11/XMenuWindow$1@0#ch.usi.dag.typeparser.TypeNode@1881289b,run()V
sun/net/www/http/KeepAliveCache@0#ch.usi.dag.typeparser.TypeNode@2d05291f,run()V
java/util/concurrent/CompletableFuture$OrRelay@0#ch.usi.dag.typeparser.TypeNode@3990d58e,run()V
javax/swing/plaf/basic/BasicTreeUI$Actions$1@0#ch.usi.dag.typeparser.TypeNode@3f3b0b19,run()V
java/awt/Container$3@0#ch.usi.dag.typeparser.TypeNode@53e7dfc4,run()V
sun/swing/text/TextComponentPrintable$1@0#ch.usi.dag.typeparser.TypeNode@26772e54,run()V
sun/awt/GlobalCursorManager$NativeUpdater@0#ch.usi.dag.typeparser.TypeNode@2227fa03,run()V
sun/applet/AppletPanel@0#ch.usi.dag.typeparser.TypeNode@e8f7aa3,run()V
com/sun/xml/internal/ws/api/server/ThreadLocalContainerResolver$2$1@0#ch.usi.dag.typeparser.TypeNode@18de84f0,run()V
sun/net/httpserver/ServerImpl$ServerTimerTask1@0#ch.usi.dag.typeparser.TypeNode@344ab465,run()V
java/awt/Dialog$2@0#ch.usi.dag.typeparser.TypeNode@741cb82c,run()V
java/util/ArraysParallelSortHelpers$FJChar$Merger@0#ch.usi.dag.typeparser.TypeNode@1427cc16,exec()Z
sun/rmi/transport/tcp/TCPChannel$1@0#ch.usi.dag.typeparser.TypeNode@1398e3aa,run()V
sun/awt/X11/XWarningWindow$2@0#ch.usi.dag.typeparser.TypeNode@160a3238,run()V
sun/awt/X11/InfoWindow$Closer$1@0#ch.usi.dag.typeparser.TypeNode@4738db0f,run()V
sun/swing/text/TextComponentPrintable$10@0#ch.usi.dag.typeparser.TypeNode@6379f341,call()L
java/util/concurrent/ForkJoinTask$AdaptedRunnable@0#ch.usi.dag.typeparser.TypeNode@13c147f8,run()V
sun/awt/X11/XSystemTrayPeer$3@0#ch.usi.dag.typeparser.TypeNode@5c9844a4,run()V
javax/swing/text/JTextComponent$3$2@0#ch.usi.dag.typeparser.TypeNode@65e0d9de,run()V
sun/nio/ch/SimpleAsynchronousFileChannelImpl$1@0#ch.usi.dag.typeparser.TypeNode@19315d74,run()V
java/util/prefs/FileSystemPreferences$3@0#ch.usi.dag.typeparser.TypeNode@94d4dd,run()V
javax/swing/JFormattedTextField$FocusLostHandler@0#ch.usi.dag.typeparser.TypeNode@78d72c9b,run()V
javax/swing/JEditorPane$PageLoader$3@0#ch.usi.dag.typeparser.TypeNode@2bf833b5,run()V
sun/applet/AppletPanel$3@0#ch.usi.dag.typeparser.TypeNode@2bda778a,run()V
java/util/concurrent/ForkJoinTask$AdaptedCallable@0#ch.usi.dag.typeparser.TypeNode@4aed4ff,run()V
java/util/stream/AbstractShortCircuitTask@0#ch.usi.dag.typeparser.TypeNode@1277c623,exec()Z
java/util/concurrent/ForkJoinWorkerThread$InnocuousForkJoinWorkerThread@0#ch.usi.dag.typeparser.TypeNode@619ef9cb,run()V
sun/awt/X11/XEmbedCanvasPeer$3@0#ch.usi.dag.typeparser.TypeNode@3a9bd6c7,run()V
sun/nio/ch/SimpleAsynchronousFileChannelImpl$2@0#ch.usi.dag.typeparser.TypeNode@18f9bc99,run()V
java/util/concurrent/Executors$RunnableAdapter@0#ch.usi.dag.typeparser.TypeNode@7b004765,call()L
java/util/stream/Nodes$ToArrayTask$OfLong@0#ch.usi.dag.typeparser.TypeNode@24bff8d7,exec()Z
sun/applet/AppletPanel$4@0#ch.usi.dag.typeparser.TypeNode@4a9f02f4,run()V
java/util/concurrent/FutureTask@0#ch.usi.dag.typeparser.TypeNode@7005b6e,run()V
java/util/stream/Nodes$SizedCollectorTask@0#ch.usi.dag.typeparser.TypeNode@2ba0b7cf,exec()Z
javax/tools/JavaCompiler$CompilationTask@0#ch.usi.dag.typeparser.TypeNode@7ea7fed5,call()L
java/util/ArraysParallelSortHelpers$FJObject$Merger@0#ch.usi.dag.typeparser.TypeNode@58e9cc9a,exec()Z
sun/security/tools/policytool/PolicyTool$1@0#ch.usi.dag.typeparser.TypeNode@218da1f9,run()V
sun/awt/X11/InfoWindow$Balloon$Displayer@0#ch.usi.dag.typeparser.TypeNode@3c7b040f,run()V
sun/rmi/transport/proxy/RMIMasterSocketFactory$AsyncConnector@0#ch.usi.dag.typeparser.TypeNode@64bf60c7,run()V
java/util/concurrent/CompletableFuture$Signaller@0#ch.usi.dag.typeparser.TypeNode@3e7ac200,run()V
sun/awt/X11/XSystemTrayPeer$1@0#ch.usi.dag.typeparser.TypeNode@24e0989e,run()V
java/util/concurrent/Executors$PrivilegedCallable@0#ch.usi.dag.typeparser.TypeNode@45566129,call()L
sun/rmi/transport/DGCImpl$1@0#ch.usi.dag.typeparser.TypeNode@656605e7,run()V
java/util/concurrent/CompletableFuture$UniHandle@0#ch.usi.dag.typeparser.TypeNode@15d41953,run()V
sun/awt/shell/ShellFolder$2@0#ch.usi.dag.typeparser.TypeNode@2ef2fa78,call()L
java/util/concurrent/CompletableFuture$OrAccept@0#ch.usi.dag.typeparser.TypeNode@30f1487d,run()V
java/util/stream/Nodes$SizedCollectorTask$OfInt@0#ch.usi.dag.typeparser.TypeNode@34723cfe,exec()Z
sun/net/www/http/KeepAliveStreamCleaner@0#ch.usi.dag.typeparser.TypeNode@77e55368,run()V
sun/management/jdp/JdpController$JDPControllerRunner@0#ch.usi.dag.typeparser.TypeNode@274b3fc6,run()V
sun/rmi/server/Activation$GroupEntry$Watchdog@0#ch.usi.dag.typeparser.TypeNode@515c3dd2,run()V
java/awt/Container$WakingRunnable@0#ch.usi.dag.typeparser.TypeNode@6456fcc4,run()V
java/util/concurrent/ConcurrentHashMap$MapReduceEntriesTask@0#ch.usi.dag.typeparser.TypeNode@163e86a8,exec()Z
java/util/concurrent/CompletableFuture$Completion@0#ch.usi.dag.typeparser.TypeNode@7c4d74da,run()V
com/sun/java/swing/plaf/windows/DesktopProperty$1@0#ch.usi.dag.typeparser.TypeNode@2fe26f79,run()V
sun/awt/X11/XToolkit$2@0#ch.usi.dag.typeparser.TypeNode@5eef570,run()V
java/util/logging/LogManager$Cleaner@0#ch.usi.dag.typeparser.TypeNode@4f6f13f0,run()V
sun/awt/SunToolkit$1@0#ch.usi.dag.typeparser.TypeNode@5fbcc71d,run()V
java/util/concurrent/ForkJoinTask$AdaptedRunnableAction@0#ch.usi.dag.typeparser.TypeNode@4da86d09,run()V
java/util/concurrent/CompletableFuture$OrRun@0#ch.usi.dag.typeparser.TypeNode@25ebe548,run()V
sun/java2d/marlin/RendererStats$1@0#ch.usi.dag.typeparser.TypeNode@7b04dba0,run()V
java/util/concurrent/CompletableFuture$UniCompose@0#ch.usi.dag.typeparser.TypeNode@912fdbb,run()V
sun/nio/fs/NativeBuffer$Deallocator@0#ch.usi.dag.typeparser.TypeNode@27330f99,run()V
sun/awt/datatransfer/DataTransferer$5@0#ch.usi.dag.typeparser.TypeNode@7f26f394,run()V
java/util/ArrayPrefixHelpers$IntCumulateTask@0#ch.usi.dag.typeparser.TypeNode@8ace41e,exec()Z
sun/applet/AppletViewer$4@0#ch.usi.dag.typeparser.TypeNode@68eb7c52,run()V
java/util/stream/Nodes$CollectorTask$OfInt@0#ch.usi.dag.typeparser.TypeNode@2fd16368,exec()Z
java/util/concurrent/RecursiveTask@0#ch.usi.dag.typeparser.TypeNode@2d170dac,exec()Z
com/sun/media/sound/SoftJitterCorrector$JitterStream$1@0#ch.usi.dag.typeparser.TypeNode@7bc27f7e,run()V
javax/activation/DataHandler$1@0#ch.usi.dag.typeparser.TypeNode@68194ca4,run()V
sun/awt/X11/XEmbedCanvasPeer$5@0#ch.usi.dag.typeparser.TypeNode@73a91b68,run()V
java/awt/EventQueue$3$1@0#ch.usi.dag.typeparser.TypeNode@4f427387,run()V
java/util/stream/Nodes$ToArrayTask$OfRef@0#ch.usi.dag.typeparser.TypeNode@2dd61113,exec()Z
com/sun/xml/internal/org/jvnet/mimepull/WeakDataFile$1@0#ch.usi.dag.typeparser.TypeNode@5ac9ae05,run()V
sun/awt/dnd/SunDragSourceContextPeer$EventDispatcher@0#ch.usi.dag.typeparser.TypeNode@5d558d99,run()V
sun/java2d/loops/GraphicsPrimitive$TraceReporter@0#ch.usi.dag.typeparser.TypeNode@404c8c9d,run()V
sun/swing/text/TextComponentPrintable$8@0#ch.usi.dag.typeparser.TypeNode@26c9521a,call()L
javax/swing/plaf/basic/BasicDirectoryModel$LoadFilesThread@0#ch.usi.dag.typeparser.TypeNode@7effa21e,run()V
sun/applet/AppletViewer$3@0#ch.usi.dag.typeparser.TypeNode@20d73835,run()V
com/sun/org/apache/xml/internal/utils/ThreadControllerWrapper$ThreadController$SafeThread@0#ch.usi.dag.typeparser.TypeNode@5ae9ea0a,run()V
sun/awt/X11/XEmbedCanvasPeer$6@0#ch.usi.dag.typeparser.TypeNode@3116e9f2,run()V
sun/awt/datatransfer/SunClipboard$1@0#ch.usi.dag.typeparser.TypeNode@3ac5a623,run()V
java/util/ArrayPrefixHelpers$CumulateTask@0#ch.usi.dag.typeparser.TypeNode@66cdde2b,exec()Z
sun/swing/plaf/synth/SynthFileChooserUI$DelayedSelectionUpdater@0#ch.usi.dag.typeparser.TypeNode@2ece1629,run()V
java/util/concurrent/ConcurrentHashMap$MapReduceKeysToLongTask@0#ch.usi.dag.typeparser.TypeNode@700cc0e6,exec()Z
sun/awt/im/ExecutableInputMethodManager$2@0#ch.usi.dag.typeparser.TypeNode@452bddc0,run()V
javax/swing/SwingWorker$2@0#ch.usi.dag.typeparser.TypeNode@7427c8d4,run()V
java/util/concurrent/ConcurrentHashMap$MapReduceMappingsToIntTask@0#ch.usi.dag.typeparser.TypeNode@6e5e36ab,exec()Z
java/util/concurrent/ConcurrentHashMap$MapReduceKeysToDoubleTask@0#ch.usi.dag.typeparser.TypeNode@21c8dd3e,exec()Z
sun/awt/X11/XEmbedClientHelper$1@0#ch.usi.dag.typeparser.TypeNode@78dbb023,run()V
java/util/concurrent/ThreadPoolExecutor$Worker@0#ch.usi.dag.typeparser.TypeNode@227cba85,run()V
java/lang/ref/Finalizer$2@0#ch.usi.dag.typeparser.TypeNode@ad58e2c,run()V
javax/swing/SwingWorker$5@0#ch.usi.dag.typeparser.TypeNode@57c4d33a,run()V
javax/swing/colorchooser/ValueFormatter@0#ch.usi.dag.typeparser.TypeNode@1d9f9c9d,run()V
java/util/concurrent/CompletableFuture$UniCompletion@0#ch.usi.dag.typeparser.TypeNode@7d957c96,run()V
javax/swing/JEditorPane$PageLoader@0#ch.usi.dag.typeparser.TypeNode@63792a7a,run()V
sun/nio/ch/FileChannelImpl$Unmapper@0#ch.usi.dag.typeparser.TypeNode@149ca998,run()V
java/util/TimerTask@0#ch.usi.dag.typeparser.TypeNode@7d8e1c87,run()V
sun/rmi/server/Activation$Shutdown@0#ch.usi.dag.typeparser.TypeNode@65c040c9,run()V
javax/management/monitor/Monitor$MonitorTask@0#ch.usi.dag.typeparser.TypeNode@ef09e1,run()V
sun/rmi/transport/DGCClient$EndpointEntry$RenewCleanThread@0#ch.usi.dag.typeparser.TypeNode@6e28a726,run()V
java/util/concurrent/ConcurrentHashMap$MapReduceEntriesToIntTask@0#ch.usi.dag.typeparser.TypeNode@315edc50,exec()Z
java/util/concurrent/CompletableFuture$BiCompletion@0#ch.usi.dag.typeparser.TypeNode@cf825e8,run()V
java/awt/EventDispatchThread@0#ch.usi.dag.typeparser.TypeNode@4e928f86,run()V
java/util/stream/Nodes$CollectorTask$OfLong@0#ch.usi.dag.typeparser.TypeNode@719a208f,exec()Z
javax/swing/JEditorPane$2@0#ch.usi.dag.typeparser.TypeNode@4ca87dbe,run()V
java/util/concurrent/ConcurrentHashMap$MapReduceValuesToDoubleTask@0#ch.usi.dag.typeparser.TypeNode@250d3c1b,exec()Z
java/lang/Thread@0#ch.usi.dag.typeparser.TypeNode@181b8d0c,run()V
java/awt/datatransfer/Clipboard$2@0#ch.usi.dag.typeparser.TypeNode@61231034,run()V
java/util/stream/FindOps$FindTask@0#ch.usi.dag.typeparser.TypeNode@3dfb1cec,exec()Z
sun/print/PrintServiceLookupProvider@0#ch.usi.dag.typeparser.TypeNode@738ce295,run()V
java/util/ArraysParallelSortHelpers$FJInt$Sorter@0#ch.usi.dag.typeparser.TypeNode@6845895c,exec()Z
sun/print/PrintServiceLookupProvider$PrinterChangeListener@0#ch.usi.dag.typeparser.TypeNode@7960e87a,run()V
java/util/stream/Nodes$ToArrayTask$OfInt@0#ch.usi.dag.typeparser.TypeNode@28e6f5c7,exec()Z
javax/swing/text/html/ImageView$1@0#ch.usi.dag.typeparser.TypeNode@2e00032d,run()V
sun/awt/X11/XDecoratedPeer$2@0#ch.usi.dag.typeparser.TypeNode@266e0341,run()V
java/util/stream/AbstractTask@0#ch.usi.dag.typeparser.TypeNode@5ff9bed6,exec()Z
java/lang/Runnable@0#ch.usi.dag.typeparser.TypeNode@1dd678e6,run()V
javax/swing/JTable$ThreadSafePrintable$1@0#ch.usi.dag.typeparser.TypeNode@72c743f4,run()V
java/util/stream/Nodes$SizedCollectorTask$OfDouble@0#ch.usi.dag.typeparser.TypeNode@358260b6,exec()Z
com/sun/corba/se/impl/activation/ProcessMonitorThread@0#ch.usi.dag.typeparser.TypeNode@23216e17,run()V
sun/net/httpserver/ServerImpl$ServerTimerTask@0#ch.usi.dag.typeparser.TypeNode@72d44be3,run()V
javax/management/monitor/Monitor$SchedulerTask@0#ch.usi.dag.typeparser.TypeNode@534a5e70,run()V
sun/awt/X11/XWindow$1@0#ch.usi.dag.typeparser.TypeNode@4481f9bd,run()V
sun/awt/X11/XTrayIconPeer$5@0#ch.usi.dag.typeparser.TypeNode@612c4c10,run()V
sun/awt/X11/XDropTargetRegistry$1@0#ch.usi.dag.typeparser.TypeNode@31df0ce3,run()V
sun/awt/X11/XWarningWindow$3@0#ch.usi.dag.typeparser.TypeNode@3b5d1662,run()V
java/util/concurrent/CountedCompleter@0#ch.usi.dag.typeparser.TypeNode@7215172a,exec()Z
sun/awt/X11/XScrollRepeater@0#ch.usi.dag.typeparser.TypeNode@33bd86fe,run()V
com/sun/corba/se/impl/oa/poa/POAManagerImpl$POAManagerDeactivator@0#ch.usi.dag.typeparser.TypeNode@6dac64ea,run()V
com/sun/java/swing/plaf/windows/WindowsFileChooserUI$5$1@0#ch.usi.dag.typeparser.TypeNode@49e11ca7,run()V
java/util/concurrent/ConcurrentHashMap$MapReduceKeysToIntTask@0#ch.usi.dag.typeparser.TypeNode@11cb348c,exec()Z
sun/security/provider/SeedGenerator$ThreadedSeedGenerator@0#ch.usi.dag.typeparser.TypeNode@26f6fbbd,run()V
sun/awt/im/InputContext$1@0#ch.usi.dag.typeparser.TypeNode@4743220d,run()V
java/awt/KeyboardFocusManager$4@0#ch.usi.dag.typeparser.TypeNode@63cb1a9a,run()V
java/util/concurrent/CompletableFuture$OrApply@0#ch.usi.dag.typeparser.TypeNode@6f279a75,run()V
sun/rmi/transport/tcp/TCPTransport$ConnectionHandler@0#ch.usi.dag.typeparser.TypeNode@71e064b2,run()V
java/io/DeleteOnExitHook$1@0#ch.usi.dag.typeparser.TypeNode@61f94cac,run()V
java/util/stream/Nodes$CollectorTask$OfRef@0#ch.usi.dag.typeparser.TypeNode@18bec5eb,exec()Z
com/sun/java/swing/plaf/windows/WindowsTextFieldUI$WindowsFieldCaret$SafeScroller@0#ch.usi.dag.typeparser.TypeNode@47a1b2f7,run()V
java/lang/ApplicationShutdownHooks$1@0#ch.usi.dag.typeparser.TypeNode@60600939,run()V
java/util/concurrent/ConcurrentHashMap$SearchEntriesTask@0#ch.usi.dag.typeparser.TypeNode@61a098fa,exec()Z
java/lang/ref/Finalizer$3@0#ch.usi.dag.typeparser.TypeNode@1781e2e1,run()V
sun/java2d/pipe/BufferedRenderPipe$1@0#ch.usi.dag.typeparser.TypeNode@1a57bb34,run()V
com/sun/jmx/remote/internal/ClientCommunicatorAdmin$Checker@0#ch.usi.dag.typeparser.TypeNode@3e8d8bee,run()V
sun/awt/X11/XTrayIconPeer$6@0#ch.usi.dag.typeparser.TypeNode@64d691b2,run()V
sun/swing/PrintingStatus$NotificationPrintable$1@0#ch.usi.dag.typeparser.TypeNode@64cde9a5,run()V
sun/java2d/opengl/OGLRenderQueue$QueueFlusher@0#ch.usi.dag.typeparser.TypeNode@773bfe56,run()V
java/util/concurrent/ConcurrentHashMap$MapReduceMappingsToLongTask@0#ch.usi.dag.typeparser.TypeNode@4dbcc8ce,exec()Z
java/util/concurrent/ConcurrentHashMap$ForEachTransformedMappingTask@0#ch.usi.dag.typeparser.TypeNode@70b9cdcc,exec()Z
java/util/concurrent/ConcurrentHashMap$SearchKeysTask@0#ch.usi.dag.typeparser.TypeNode@486e3116,exec()Z
sun/nio/fs/AbstractPoller@0#ch.usi.dag.typeparser.TypeNode@3697cfee,run()V
java/util/concurrent/Callable@0#ch.usi.dag.typeparser.TypeNode@338f96f5,call()L
sun/awt/X11/InfoWindow$Closer@0#ch.usi.dag.typeparser.TypeNode@79b07ccd,run()V
sun/awt/X11/XEmbedClientHelper$2@0#ch.usi.dag.typeparser.TypeNode@c3bd1bb,run()V
sun/awt/image/ImageFetcher@0#ch.usi.dag.typeparser.TypeNode@c079185,run()V
sun/nio/ch/Invoker$3@0#ch.usi.dag.typeparser.TypeNode@163427b6,run()V
sun/awt/AWTAutoShutdown@0#ch.usi.dag.typeparser.TypeNode@4c18545,run()V
java/awt/Robot$1@0#ch.usi.dag.typeparser.TypeNode@30100995,run()V
java/awt/Window$1DisposeAction@0#ch.usi.dag.typeparser.TypeNode@3c45c5cd,run()V
com/sun/media/sound/MidiInDevice@0#ch.usi.dag.typeparser.TypeNode@24b2e53b,run()V
java/util/concurrent/ConcurrentHashMap$MapReduceMappingsToDoubleTask@0#ch.usi.dag.typeparser.TypeNode@78cbb140,exec()Z
sun/rmi/transport/tcp/TCPTransport$AcceptLoop@0#ch.usi.dag.typeparser.TypeNode@2693d31f,run()V
java/lang/ref/Finalizer$FinalizerThread@0#ch.usi.dag.typeparser.TypeNode@6a49b3c7,run()V
sun/awt/AppContext$PostShutdownEventRunnable@0#ch.usi.dag.typeparser.TypeNode@4e78d7ea,run()V
sun/awt/X11/XEmbedCanvasPeer$7@0#ch.usi.dag.typeparser.TypeNode@595f803,run()V
java/util/concurrent/CompletableFuture$BiApply@0#ch.usi.dag.typeparser.TypeNode@7c5ae5c3,run()V
java/util/concurrent/ConcurrentHashMap$MapReduceKeysTask@0#ch.usi.dag.typeparser.TypeNode@12c2135e,exec()Z
java/util/concurrent/ConcurrentHashMap$MapReduceValuesToLongTask@0#ch.usi.dag.typeparser.TypeNode@352e8cb3,exec()Z
java/util/concurrent/Executors$PrivilegedThreadFactory$1@0#ch.usi.dag.typeparser.TypeNode@3a575fff,run()V
com/sun/xml/internal/ws/api/pipe/Fiber@0#ch.usi.dag.typeparser.TypeNode@62f0035a,run()V
java/util/ArraysParallelSortHelpers$FJFloat$Merger@0#ch.usi.dag.typeparser.TypeNode@2be0ea4a,exec()Z
javax/swing/JEditorPane$3@0#ch.usi.dag.typeparser.TypeNode@e7283dd,run()V
java/util/concurrent/ConcurrentHashMap$ForEachMappingTask@0#ch.usi.dag.typeparser.TypeNode@bb510b,exec()Z
sun/awt/X11/XBaseMenuWindow$3@0#ch.usi.dag.typeparser.TypeNode@8bac10b,run()V
sun/awt/X11/XChoicePeer$1@0#ch.usi.dag.typeparser.TypeNode@428b5b3f,run()V
sun/applet/AppletPanel$2@0#ch.usi.dag.typeparser.TypeNode@64d1bf9,run()V
com/sun/imageio/stream/StreamCloser$1@0#ch.usi.dag.typeparser.TypeNode@69c7b870,run()V
sun/awt/X11/XEmbedCanvasPeer$9@0#ch.usi.dag.typeparser.TypeNode@670132b9,run()V
java/util/stream/Nodes$ToArrayTask@0#ch.usi.dag.typeparser.TypeNode@720907c9,exec()Z
java/util/stream/Nodes$ToArrayTask$OfPrimitive@0#ch.usi.dag.typeparser.TypeNode@1eae036e,exec()Z
java/util/concurrent/ConcurrentHashMap$BulkTask@0#ch.usi.dag.typeparser.TypeNode@37220ee3,exec()Z
sun/misc/TimerTickThread@0#ch.usi.dag.typeparser.TypeNode@2966bca2,run()V
com/sun/jndi/ldap/EventQueue@0#ch.usi.dag.typeparser.TypeNode@15c5c99,run()V
java/util/concurrent/ConcurrentHashMap$ForEachTransformedKeyTask@0#ch.usi.dag.typeparser.TypeNode@10ba757f,exec()Z
java/util/concurrent/ConcurrentHashMap$MapReduceMappingsTask@0#ch.usi.dag.typeparser.TypeNode@266a77ac,exec()Z
java/nio/DirectByteBuffer$Deallocator@0#ch.usi.dag.typeparser.TypeNode@67d99612,run()V
sun/awt/X11/XSystemTrayPeer$2@0#ch.usi.dag.typeparser.TypeNode@162807e5,run()V
java/util/prefs/AbstractPreferences$EventDispatchThread@0#ch.usi.dag.typeparser.TypeNode@33957e5b,run()V
sun/awt/AppContext$4@0#ch.usi.dag.typeparser.TypeNode@467c77b2,run()V
com/sun/org/apache/xml/internal/dtm/ref/IncrementalSAXSource_Filter@0#ch.usi.dag.typeparser.TypeNode@35a7c477,run()V
sun/nio/ch/SimpleAsynchronousFileChannelImpl$3@0#ch.usi.dag.typeparser.TypeNode@375a068f,run()V
java/awt/EventQueue$1@0#ch.usi.dag.typeparser.TypeNode@54dc3d0a,run()V
java/util/concurrent/RunnableFuture@0#ch.usi.dag.typeparser.TypeNode@6fe73630,run()V
com/sun/jmx/remote/internal/ServerCommunicatorAdmin$Timeout@0#ch.usi.dag.typeparser.TypeNode@351bfccc,run()V
java/awt/LightweightDispatcher$3@0#ch.usi.dag.typeparser.TypeNode@5b11b6c8,run()V
java/util/stream/Streams$1@0#ch.usi.dag.typeparser.TypeNode@6e44d39e,run()V
sun/awt/X11/XWindowPeer$1@0#ch.usi.dag.typeparser.TypeNode@1a4eb392,run()V
java/util/stream/Streams$2@0#ch.usi.dag.typeparser.TypeNode@2e484f94,run()V
java/util/concurrent/CompletableFuture$BiRun@0#ch.usi.dag.typeparser.TypeNode@1dd17c0c,run()V
java/util/ArraysParallelSortHelpers$FJByte$Merger@0#ch.usi.dag.typeparser.TypeNode@7e4fc391,exec()Z
sun/awt/X11/XWarningWindow$4@0#ch.usi.dag.typeparser.TypeNode@4483da9,run()V
sun/applet/AppletViewerPanel@0#ch.usi.dag.typeparser.TypeNode@14221dc6,run()V
java/util/concurrent/CompletableFuture$AsyncRun@0#ch.usi.dag.typeparser.TypeNode@6e0d7be4,run()V
sun/rmi/transport/ObjectTable$Reaper@0#ch.usi.dag.typeparser.TypeNode@328c6f65,run()V
javax/swing/text/html/HiddenTagView$1@0#ch.usi.dag.typeparser.TypeNode@5c1f31f3,run()V
javax/swing/text/JTextComponent$3$1@0#ch.usi.dag.typeparser.TypeNode@2534b0d9,call()L
java/util/concurrent/CompletableFuture$UniWhenComplete@0#ch.usi.dag.typeparser.TypeNode@618b147b,run()V
sun/swing/text/TextComponentPrintable$2@0#ch.usi.dag.typeparser.TypeNode@495590a7,call()L
com/sun/xml/internal/bind/v2/runtime/unmarshaller/DefaultIDResolver$1@0#ch.usi.dag.typeparser.TypeNode@704091b4,call()L
java/util/concurrent/Executors$2@0#ch.usi.dag.typeparser.TypeNode@17baf642,call()L
java/util/stream/Nodes$CollectorTask$OfDouble@0#ch.usi.dag.typeparser.TypeNode@4b6f196c,exec()Z
javax/swing/SwingWorker$DoSubmitAccumulativeRunnable@0#ch.usi.dag.typeparser.TypeNode@7d3bf73f,run()V
sun/misc/RequestProcessor@0#ch.usi.dag.typeparser.TypeNode@2c689e6d,run()V
java/util/concurrent/Executors$PrivilegedCallableUsingCurrentClassLoader@0#ch.usi.dag.typeparser.TypeNode@6cd8b2de,call()L
java/util/concurrent/ConcurrentHashMap$MapReduceValuesTask@0#ch.usi.dag.typeparser.TypeNode@72e950ef,exec()Z
java/util/ArraysParallelSortHelpers$FJFloat$Sorter@0#ch.usi.dag.typeparser.TypeNode@1444fa42,exec()Z
com/sun/media/sound/RealTimeSequencer$PlayThread@0#ch.usi.dag.typeparser.TypeNode@3d61b36a,run()V
java/util/concurrent/CompletableFuture$UniApply@0#ch.usi.dag.typeparser.TypeNode@3f321f8,run()V
javax/swing/plaf/basic/BasicDirectoryModel$DoChangeContents@0#ch.usi.dag.typeparser.TypeNode@7dfccbf2,run()V
java/util/ArraysParallelSortHelpers$FJDouble$Merger@0#ch.usi.dag.typeparser.TypeNode@78605670,exec()Z
com/sun/xml/internal/ws/transport/http/server/PortableHttpHandler$HttpHandlerRunnable@0#ch.usi.dag.typeparser.TypeNode@5c24a636,run()V
javax/swing/SwingWorker$1@0#ch.usi.dag.typeparser.TypeNode@3ad6ecc5,call()L
sun/java2d/pipe/BufferedMaskFill$1@0#ch.usi.dag.typeparser.TypeNode@79863795,run()V
sun/java2d/marlin/OffHeapArray$OffHeapDisposer@0#ch.usi.dag.typeparser.TypeNode@1db077a4,run()V
javax/swing/text/JTextComponent$AccessibleJTextComponent$2@0#ch.usi.dag.typeparser.TypeNode@195b4f4f,run()V
java/util/ArraysParallelSortHelpers$Relay@0#ch.usi.dag.typeparser.TypeNode@64f5a6ec,exec()Z
sun/awt/X11/InfoWindow$Tooltip$2@0#ch.usi.dag.typeparser.TypeNode@48d44acf,run()V
sun/applet/AppletPanel$5@0#ch.usi.dag.typeparser.TypeNode@197d38a,run()V
java/util/prefs/FileSystemPreferences$4$1@0#ch.usi.dag.typeparser.TypeNode@228ec493,run()V
sun/awt/X11/XListPeer$1@0#ch.usi.dag.typeparser.TypeNode@57082d16,run()V
sun/awt/X11/XEmbedCanvasPeer$2@0#ch.usi.dag.typeparser.TypeNode@6cc20add,run()V
java/util/stream/SliceOps$SliceTask@0#ch.usi.dag.typeparser.TypeNode@3d376f28,exec()Z
sun/nio/fs/Cancellable@0#ch.usi.dag.typeparser.TypeNode@2633d812,run()V
java/util/ArraysParallelSortHelpers$FJObject$Sorter@0#ch.usi.dag.typeparser.TypeNode@3eacf08e,exec()Z
sun/awt/im/ExecutableInputMethodManager@0#ch.usi.dag.typeparser.TypeNode@6f535d77,run()V
sun/misc/Signal$1@0#ch.usi.dag.typeparser.TypeNode@6225c800,run()V
sun/java2d/opengl/GLXGraphicsConfig$GLXGetConfigInfo@0#ch.usi.dag.typeparser.TypeNode@53f785df,run()V
java/util/concurrent/CompletableFuture$BiAccept@0#ch.usi.dag.typeparser.TypeNode@6bfe4dd1,run()V
com/sun/media/sound/SoftAudioPusher@0#ch.usi.dag.typeparser.TypeNode@6980d3b3,run()V
com/sun/media/sound/SoftSynthesizer$WeakAudioStream$1@0#ch.usi.dag.typeparser.TypeNode@30cdd6f9,run()V
java/util/ArraysParallelSortHelpers$FJLong$Sorter@0#ch.usi.dag.typeparser.TypeNode@5c9aff2,exec()Z
com/sun/jndi/ldap/NamingEventNotifier@0#ch.usi.dag.typeparser.TypeNode@5970734c,run()V
sun/java2d/jules/TileWorker@0#ch.usi.dag.typeparser.TypeNode@51bab787,run()V
sun/awt/X11/XEmbedCanvasPeer$1@0#ch.usi.dag.typeparser.TypeNode@2e8828b5,run()V
javax/swing/JTable$6@0#ch.usi.dag.typeparser.TypeNode@4d687755,run()V
java/util/ArraysParallelSortHelpers$FJDouble$Sorter@0#ch.usi.dag.typeparser.TypeNode@3a2e8c6a,exec()Z
com/sun/corba/se/impl/oa/poa/POAPolicyMediatorImpl_R_USM$Etherealizer@0#ch.usi.dag.typeparser.TypeNode@11a3ffe6,run()V
java/util/concurrent/CompletableFuture$UniRun@0#ch.usi.dag.typeparser.TypeNode@217ed737,run()V
sun/applet/AppletPanel$7@0#ch.usi.dag.typeparser.TypeNode@6537ab7d,run()V
javax/swing/text/JTextComponent$3@0#ch.usi.dag.typeparser.TypeNode@44c01e8c,run()V
com/sun/media/sound/DataPusher@0#ch.usi.dag.typeparser.TypeNode@17c60995,run()V
java/util/concurrent/ForkJoinWorkerThread@0#ch.usi.dag.typeparser.TypeNode@5d95c7c2,run()V
sun/awt/X11/XDecoratedPeer$1@0#ch.usi.dag.typeparser.TypeNode@1e42841a,run()V
com/sun/xml/internal/ws/client/dispatch/DispatchImpl$Invoker@0#ch.usi.dag.typeparser.TypeNode@79b417ed,call()L
java/util/concurrent/ConcurrentHashMap$ForEachKeyTask@0#ch.usi.dag.typeparser.TypeNode@4b6c0937,exec()Z
java/util/TimerThread@0#ch.usi.dag.typeparser.TypeNode@1579cf25,run()V
sun/nio/ch/EPollPort$EventHandlerTask@0#ch.usi.dag.typeparser.TypeNode@4c27fe7a,run()V
javax/swing/RepaintManager$ProcessingRunnable@0#ch.usi.dag.typeparser.TypeNode@7794926,run()V
sun/awt/X11/XTrayIconPeer$IconCanvas$IconObserver$1@0#ch.usi.dag.typeparser.TypeNode@1f116973,run()V
sun/swing/FilePane$DetailsTableRowSorter$1@0#ch.usi.dag.typeparser.TypeNode@2d45db20,call()L
java/util/concurrent/ConcurrentHashMap$MapReduceEntriesToLongTask@0#ch.usi.dag.typeparser.TypeNode@22059c63,exec()Z
sun/nio/fs/UnixCopyFile$1@0#ch.usi.dag.typeparser.TypeNode@413e4756,run()V
java/awt/WaitDispatchSupport$3@0#ch.usi.dag.typeparser.TypeNode@6626204e,run()V
com/sun/corba/se/impl/oa/poa/POAImpl$DestroyThread@0#ch.usi.dag.typeparser.TypeNode@63cf0da6,run()V
sun/awt/X11/InfoWindow$Balloon$1@0#ch.usi.dag.typeparser.TypeNode@393bd750,run()V
javax/swing/text/ComponentView$1@0#ch.usi.dag.typeparser.TypeNode@1c0cba60,run()V
com/sun/xml/internal/ws/client/sei/AsyncMethodHandler$SEIAsyncInvoker@0#ch.usi.dag.typeparser.TypeNode@305a362a,run()V
sun/awt/X11/XEmbedCanvasPeer$8@0#ch.usi.dag.typeparser.TypeNode@425b142e,run()V
java/util/concurrent/ConcurrentHashMap$SearchMappingsTask@0#ch.usi.dag.typeparser.TypeNode@65cd37bb,exec()Z
javax/swing/plaf/metal/MetalLookAndFeel$AATextListener$1@0#ch.usi.dag.typeparser.TypeNode@5bf3298f,run()V
com/sun/xml/internal/ws/client/dispatch/DispatchImpl$DispatchAsyncInvoker@0#ch.usi.dag.typeparser.TypeNode@747d1e03,run()V
java/util/stream/Nodes$SizedCollectorTask$OfRef@0#ch.usi.dag.typeparser.TypeNode@35ab67d4,exec()Z
com/sun/jndi/ldap/pool/PoolCleaner@0#ch.usi.dag.typeparser.TypeNode@414dc3ca,run()V
java/io/Console$1@0#ch.usi.dag.typeparser.TypeNode@27ed1d60,run()V
java/util/ArraysParallelSortHelpers$EmptyCompleter@0#ch.usi.dag.typeparser.TypeNode@155afbd7,exec()Z
sun/nio/ch/UnixAsynchronousSocketChannelImpl$1@0#ch.usi.dag.typeparser.TypeNode@6d0bf784,run()V
sun/misc/Perf$1@0#ch.usi.dag.typeparser.TypeNode@2e949007,run()V
sun/awt/X11/XClipboard$CheckChangeTimerTask@0#ch.usi.dag.typeparser.TypeNode@6f20adb6,run()V
javax/swing/BufferStrategyPaintManager$3@0#ch.usi.dag.typeparser.TypeNode@79a4f733,run()V
java/lang/ref/Reference$ReferenceHandler@0#ch.usi.dag.typeparser.TypeNode@57a94530,run()V
javax/tools/DocumentationTool$DocumentationTask@0#ch.usi.dag.typeparser.TypeNode@5ca4763f,call()L
sun/swing/PrintingStatus$3@0#ch.usi.dag.typeparser.TypeNode@781ce680,run()V
java/awt/Toolkit$DesktopPropertyChangeSupport$1@0#ch.usi.dag.typeparser.TypeNode@6fc1a561,run()V
javax/swing/BufferStrategyPaintManager$2@0#ch.usi.dag.typeparser.TypeNode@755a3ffb,run()V
java/util/stream/Nodes$ToArrayTask$OfDouble@0#ch.usi.dag.typeparser.TypeNode@385936f3,exec()Z
sun/awt/X11/XTrayIconPeer$4$1@0#ch.usi.dag.typeparser.TypeNode@31809f2b,run()V
java/util/concurrent/CompletableFuture$UniRelay@0#ch.usi.dag.typeparser.TypeNode@7aece85c,run()V
javax/management/NotificationBroadcasterSupport$SendNotifJob@0#ch.usi.dag.typeparser.TypeNode@16374086,run()V
javax/swing/text/JTextComponent$AccessibleJTextComponent$3@0#ch.usi.dag.typeparser.TypeNode@2bdae168,run()V
com/sun/java/swing/plaf/gtk/GTKLookAndFeel$WeakPCL$1@0#ch.usi.dag.typeparser.TypeNode@4c32428a,run()V
javax/swing/text/DefaultStyledDocument$ChangeUpdateRunnable@0#ch.usi.dag.typeparser.TypeNode@72a80415,run()V
com/sun/media/sound/DirectAudioDevice$DirectClip@0#ch.usi.dag.typeparser.TypeNode@36a74c18,run()V
sun/awt/X11/XEmbedChildProxyPeer$1@0#ch.usi.dag.typeparser.TypeNode@17f00930,run()V
javax/swing/SwingWorker$4@0#ch.usi.dag.typeparser.TypeNode@7ec9780b,run()V
javax/swing/event/SwingPropertyChangeSupport$1@0#ch.usi.dag.typeparser.TypeNode@74832e40,run()V
sun/nio/ch/UnixAsynchronousSocketChannelImpl$2@0#ch.usi.dag.typeparser.TypeNode@14a00e66,run()V
sun/net/httpserver/ServerImpl$Exchange@0#ch.usi.dag.typeparser.TypeNode@482652f7,run()V
java/util/ArrayPrefixHelpers$DoubleCumulateTask@0#ch.usi.dag.typeparser.TypeNode@79e1f733,exec()Z
sun/java2d/Disposer@0#ch.usi.dag.typeparser.TypeNode@30c31e10,run()V
com/sun/media/sound/EventDispatcher@0#ch.usi.dag.typeparser.TypeNode@2b34a1e0,run()V
sun/net/httpserver/ServerImpl$Dispatcher@0#ch.usi.dag.typeparser.TypeNode@6d7453ad,run()V
java/util/concurrent/ConcurrentHashMap$ReduceEntriesTask@0#ch.usi.dag.typeparser.TypeNode@4bf4cd2e,exec()Z
java/util/concurrent/Executors$1@0#ch.usi.dag.typeparser.TypeNode@56eb8c30,call()L
sun/audio/AudioPlayer@0#ch.usi.dag.typeparser.TypeNode@6413fef3,run()V
com/sun/corba/se/impl/transport/SelectorImpl@0#ch.usi.dag.typeparser.TypeNode@1618b4fa,run()V
java/awt/WaitDispatchSupport$5@0#ch.usi.dag.typeparser.TypeNode@4b9a2d73,run()V
java/util/concurrent/ConcurrentHashMap$ForEachValueTask@0#ch.usi.dag.typeparser.TypeNode@7e389cd6,exec()Z
javax/swing/text/AsyncBoxView$FlushTask@0#ch.usi.dag.typeparser.TypeNode@6b7b046,run()V
com/sun/xml/internal/bind/v2/runtime/DomPostInitAction@0#ch.usi.dag.typeparser.TypeNode@6023b6d2,run()V
javax/swing/SwingWorker$3@0#ch.usi.dag.typeparser.TypeNode@52fe7c0f,run()V
sun/misc/TimerThread@0#ch.usi.dag.typeparser.TypeNode@2db27b46,run()V
com/sun/jmx/remote/internal/ClientNotifForwarder$NotifFetcher@0#ch.usi.dag.typeparser.TypeNode@745526a0,run()V
com/sun/corba/se/impl/javax/rmi/CORBA/KeepAlive@0#ch.usi.dag.typeparser.TypeNode@39b5d60,run()V
java/util/concurrent/ConcurrentHashMap$ReduceKeysTask@0#ch.usi.dag.typeparser.TypeNode@38ffba03,exec()Z
sun/java2d/opengl/GLXGraphicsConfig$1@0#ch.usi.dag.typeparser.TypeNode@c1b96e6,run()V
sun/swing/text/TextComponentPrintable$9@0#ch.usi.dag.typeparser.TypeNode@69e0d31d,run()V
javax/swing/text/html/FormView$1@0#ch.usi.dag.typeparser.TypeNode@7fbb3144,run()V
java/util/concurrent/RecursiveAction@0#ch.usi.dag.typeparser.TypeNode@160b010e,exec()Z
java/util/concurrent/ConcurrentHashMap$SearchValuesTask@0#ch.usi.dag.typeparser.TypeNode@497c267a,exec()Z
com/sun/jndi/ldap/Connection@0#ch.usi.dag.typeparser.TypeNode@15f28ef5,run()V
sun/awt/X11/XFramePeer$1@0#ch.usi.dag.typeparser.TypeNode@1a23e131,run()V
sun/rmi/server/PipeWriter@0#ch.usi.dag.typeparser.TypeNode@4f241437,run()V
java/util/concurrent/CompletableFuture$UniExceptionally@0#ch.usi.dag.typeparser.TypeNode@1bbdd4a9,run()V
java/awt/datatransfer/Clipboard$1@0#ch.usi.dag.typeparser.TypeNode@61f990b,run()V
javax/swing/text/AsyncBoxView$ChildState@0#ch.usi.dag.typeparser.TypeNode@28459752,run()V
javax/swing/JEditorPane$PageLoader$1@0#ch.usi.dag.typeparser.TypeNode@b97bc80,run()V
sun/misc/InnocuousThread@0#ch.usi.dag.typeparser.TypeNode@6311640d,run()V
java/util/ArraysParallelSortHelpers$FJChar$Sorter@0#ch.usi.dag.typeparser.TypeNode@8c6a7db,exec()Z
javax/swing/plaf/basic/BasicDirectoryModel$LoadFilesThread$1@0#ch.usi.dag.typeparser.TypeNode@4110e631,call()L
com/sun/xml/internal/ws/transport/http/server/WSHttpHandler$HttpHandlerRunnable@0#ch.usi.dag.typeparser.TypeNode@68e7f7c4,run()V
sun/awt/datatransfer/SunClipboard$1SunFlavorChangeNotifier@0#ch.usi.dag.typeparser.TypeNode@2cd9bff2,run()V
sun/rmi/transport/tcp/ConnectionAcceptor@0#ch.usi.dag.typeparser.TypeNode@53e968c2,run()V
sun/security/provider/SeedGenerator$ThreadedSeedGenerator$BogusThread@0#ch.usi.dag.typeparser.TypeNode@51ce22e3,run()V
javax/swing/TimerQueue@0#ch.usi.dag.typeparser.TypeNode@68819fae,run()V
javax/swing/DefaultDesktopManager$1@0#ch.usi.dag.typeparser.TypeNode@55691a59,run()V
java/util/stream/ForEachOps$ForEachTask@0#ch.usi.dag.typeparser.TypeNode@455d026d,exec()Z
sun/rmi/server/Activation$ShutdownHook@0#ch.usi.dag.typeparser.TypeNode@12a57194,run()V
com/sun/corba/se/impl/activation/NameServiceStartThread@0#ch.usi.dag.typeparser.TypeNode@2f9404a7,run()V
sun/net/NetworkServer@0#ch.usi.dag.typeparser.TypeNode@54704b46,run()V
sun/awt/X11/XCheckboxPeer$1@0#ch.usi.dag.typeparser.TypeNode@211b2a2c,run()V
com/sun/jmx/remote/internal/ClientNotifForwarder$LinearExecutor$1@0#ch.usi.dag.typeparser.TypeNode@65a03e98,run()V
com/sun/corba/se/impl/orbutil/threadpool/ThreadPoolImpl$WorkerThread@0#ch.usi.dag.typeparser.TypeNode@2b52e068,run()V
sun/font/StrikeCache$2@0#ch.usi.dag.typeparser.TypeNode@631a1820,run()V
com/sun/java/swing/plaf/motif/MotifComboBoxUI$1@0#ch.usi.dag.typeparser.TypeNode@4dcb8e8b,run()V
java/util/concurrent/ConcurrentHashMap$ReduceValuesTask@0#ch.usi.dag.typeparser.TypeNode@30012b46,exec()Z
java/util/stream/Nodes$SizedCollectorTask$OfLong@0#ch.usi.dag.typeparser.TypeNode@331d645a,exec()Z
javax/swing/plaf/basic/BasicDirectoryModel$1@0#ch.usi.dag.typeparser.TypeNode@5713705f,run()V
sun/java2d/opengl/OGLSurfaceData$1@0#ch.usi.dag.typeparser.TypeNode@24ba43e0,run()V
java/util/concurrent/CompletableFuture$UniAccept@0#ch.usi.dag.typeparser.TypeNode@382e7f70,run()V
sun/rmi/transport/DGCAckHandler$1@0#ch.usi.dag.typeparser.TypeNode@5a4f7911,run()V
com/sun/xml/internal/ws/client/AsyncInvoker@0#ch.usi.dag.typeparser.TypeNode@7ffb60a4,run()V
sun/swing/FilePane$DelayedSelectionUpdater@0#ch.usi.dag.typeparser.TypeNode@274ac029,run()V
java/util/ArraysParallelSortHelpers$FJLong$Merger@0#ch.usi.dag.typeparser.TypeNode@cf97391,exec()Z
sun/misc/GC$Daemon@0#ch.usi.dag.typeparser.TypeNode@4a3e5552,run()V
java/util/concurrent/ScheduledThreadPoolExecutor$ScheduledFutureTask@0#ch.usi.dag.typeparser.TypeNode@b0f9c63,run()V
java/util/concurrent/ForkJoinPool$EmptyTask@0#ch.usi.dag.typeparser.TypeNode@58d7a3bb,exec()Z
java/util/concurrent/CompletableFuture$BiRelay@0#ch.usi.dag.typeparser.TypeNode@4c2f3f41,run()V
javax/swing/text/LayoutQueue$LayoutThread@0#ch.usi.dag.typeparser.TypeNode@bcfe4ba,run()V
javax/swing/text/DefaultCaret$1@0#ch.usi.dag.typeparser.TypeNode@7a970f,run()V
sun/swing/JLightweightFrame$3$1@0#ch.usi.dag.typeparser.TypeNode@19e3ce9a,run()V
sun/awt/dnd/SunDragSourceContextPeer$1@0#ch.usi.dag.typeparser.TypeNode@1acf7db2,run()V
sun/awt/X11/XBaseMenuWindow$2@0#ch.usi.dag.typeparser.TypeNode@44c073bd,run()V
java/util/concurrent/CompletableFuture$AsyncSupply@0#ch.usi.dag.typeparser.TypeNode@3703bc7e,run()V
java/util/stream/ForEachOps$ForEachOrderedTask@0#ch.usi.dag.typeparser.TypeNode@30e67f98,exec()Z
sun/print/PrintJob2D@0#ch.usi.dag.typeparser.TypeNode@5e5d41dc,run()V
sun/applet/AppContextCreator@0#ch.usi.dag.typeparser.TypeNode@717b5af1,run()V
sun/awt/X11/XEmbedCanvasPeer$4@0#ch.usi.dag.typeparser.TypeNode@232438a8,run()V
java/awt/image/renderable/RenderableImageProducer@0#ch.usi.dag.typeparser.TypeNode@1264bde8,run()V
sun/nio/ch/Invoker$2@0#ch.usi.dag.typeparser.TypeNode@25b5aa20,run()V
java/util/concurrent/ConcurrentHashMap$MapReduceValuesToIntTask@0#ch.usi.dag.typeparser.TypeNode@55f0ba66,exec()Z
javax/swing/text/JTextComponent$2@0#ch.usi.dag.typeparser.TypeNode@754c6edb,call()L
sun/java2d/pipe/BufferedTextPipe$1@0#ch.usi.dag.typeparser.TypeNode@4e387da1,run()V
sun/awt/im/ExecutableInputMethodManager$1@0#ch.usi.dag.typeparser.TypeNode@564519de,run()V
sun/awt/AppContext$5@0#ch.usi.dag.typeparser.TypeNode@5a9fa35,run()V
javax/swing/plaf/synth/SynthLookAndFeel$AATextListener$1@0#ch.usi.dag.typeparser.TypeNode@561b21b8,run()V
java/util/stream/MatchOps$MatchTask@0#ch.usi.dag.typeparser.TypeNode@10bf4f1c,exec()Z
sun/awt/X11/InfoWindow$Balloon$3@0#ch.usi.dag.typeparser.TypeNode@69b9ea1d,run()V
sun/awt/X11/InfoWindow$Tooltip$1@0#ch.usi.dag.typeparser.TypeNode@1036bb9f,run()V
java/util/stream/ReduceOps$ReduceTask@0#ch.usi.dag.typeparser.TypeNode@30fe1b54,exec()Z
com/sun/xml/internal/bind/v2/runtime/StAXPostInitAction@0#ch.usi.dag.typeparser.TypeNode@3c00c7ab,run()V
sun/net/www/MimeLauncher@0#ch.usi.dag.typeparser.TypeNode@146b3bc7,run()V
sun/nio/fs/LinuxWatchService$Poller@0#ch.usi.dag.typeparser.TypeNode@56b4951a,run()V
sun/awt/X11/GtkFileDialogPeer$1@0#ch.usi.dag.typeparser.TypeNode@58e9375b,run()V
java/util/ArraysParallelSortHelpers$FJShort$Merger@0#ch.usi.dag.typeparser.TypeNode@71d94ab,exec()Z
sun/swing/AccumulativeRunnable@0#ch.usi.dag.typeparser.TypeNode@3bdc9461,run()V
javax/swing/text/DefaultHighlighter$SafeDamager@0#ch.usi.dag.typeparser.TypeNode@3c532b97,run()V
javax/swing/SwingWorker@0#ch.usi.dag.typeparser.TypeNode@7856b790,run()V
java/util/concurrent/ConcurrentHashMap$ForEachTransformedValueTask@0#ch.usi.dag.typeparser.TypeNode@4101d2c7,exec()Z
java/util/ArraysParallelSortHelpers$FJByte$Sorter@0#ch.usi.dag.typeparser.TypeNode@62c63900,exec()Z
javax/swing/text/DefaultCaret$SafeScroller@0#ch.usi.dag.typeparser.TypeNode@1a5d0d94,run()V
java/util/concurrent/ForkJoinTask@0#ch.usi.dag.typeparser.TypeNode@293af2f1,exec()Z
sun/awt/X11/XAWTXSettings$1@0#ch.usi.dag.typeparser.TypeNode@ff18823,run()V
javax/swing/text/JTextComponent$DoSetCaretPosition@0#ch.usi.dag.typeparser.TypeNode@1821e3f2,run()V
com/sun/corba/se/impl/corba/AsynchInvoke@0#ch.usi.dag.typeparser.TypeNode@4666f1b5,run()V
sun/nio/ch/AsynchronousChannelGroupImpl$1@0#ch.usi.dag.typeparser.TypeNode@5f49c09d,run()V
java/util/ArrayPrefixHelpers$LongCumulateTask@0#ch.usi.dag.typeparser.TypeNode@396feeb5,exec()Z
java/util/stream/Nodes$CollectorTask@0#ch.usi.dag.typeparser.TypeNode@ab85d63,exec()Z
javax/swing/text/html/HiddenTagView$2@0#ch.usi.dag.typeparser.TypeNode@69f4143,run()V
javax/swing/RepaintManager$DisplayChangedRunnable@0#ch.usi.dag.typeparser.TypeNode@b3730d5,run()V
sun/awt/X11/XToolkit@0#ch.usi.dag.typeparser.TypeNode@71d81a3e,run()V
javax/swing/text/JTextComponent$AccessibleJTextComponent$4@0#ch.usi.dag.typeparser.TypeNode@2ff19416,run()V
sun/rmi/transport/tcp/TCPEndpoint$FQDN@0#ch.usi.dag.typeparser.TypeNode@4b6cb083,run()V
sun/awt/X11/XBaseMenuWindow$1@0#ch.usi.dag.typeparser.TypeNode@65dfce2f,run()V
java/util/concurrent/ConcurrentHashMap$ForEachTransformedEntryTask@0#ch.usi.dag.typeparser.TypeNode@78c7a736,exec()Z
java/util/ArraysParallelSortHelpers$FJShort$Sorter@0#ch.usi.dag.typeparser.TypeNode@4a182dea,exec()Z
java/util/concurrent/CompletableFuture$CoCompletion@0#ch.usi.dag.typeparser.TypeNode@7ed47927,run()V
javax/swing/JEditorPane$PageLoader$2@0#ch.usi.dag.typeparser.TypeNode@30c9ab3f,run()V
java/util/concurrent/ForkJoinTask$RunnableExecuteAction@0#ch.usi.dag.typeparser.TypeNode@6716d0e1,exec()Z
sun/awt/X11/XCheckboxMenuItemPeer$1@0#ch.usi.dag.typeparser.TypeNode@47bdfc41,run()V
java/util/concurrent/RunnableScheduledFuture@0#ch.usi.dag.typeparser.TypeNode@21890674,run()V
java/util/concurrent/ConcurrentHashMap$ForEachEntryTask@0#ch.usi.dag.typeparser.TypeNode@431298ef,exec()Z
sun/awt/X11/XScrollbar$1@0#ch.usi.dag.typeparser.TypeNode@2a38b5c7,run()V
