java.lang.Object.<init>
java.lang.invoke.*.*
java.lang.invoke.BoundMethodHandle$Species_LL.*
java.lang.invoke.BoundMethodHandle$Species_LLL.*
java.lang.invoke.BoundMethodHandle$Species_LLLL.*
java.lang.invoke.BoundMethodHandle$Species_LLLLL.*
java.lang.invoke.BoundMethodHandle$Species_LLLLLL.*
java.lang.invoke.BoundMethodHandle$Species_LLLLLLL.*
java.lang.invoke.BoundMethodHandle$Species_LJ.*
java.lang.Thread.<init>
java.lang.StringBuilder.<init>
java.lang.AbstractStringBuilder.<init>
cz.cuni.mff.d3s.perf.*.*
cz.cuni.mff.d3s.perf.BenchmarkResultsBenchmark.*
org.apache.batik.apps.rasterizer.Main.*
org.apache.batik.dom.svg.SVGDOMImplementation.*
org.apache.batik.css.parser.Scanner.*
org.apache.batik.parser.LengthParser.*
org.apache.batik.gvt.text.GlyphLayout.*
org.apache.batik.ext.awt.image.codec.png.PNGImageEncoder.*
org.apache.batik.ext.awt.image.rendered.GaussianBlurRed8Bit.*
org.apache.batik.ext.awt.image.rendered.MorphologyOp.*
org.apache.batik.ext.awt.image.rendered.PadRed.*
org.renaissance.RenaissanceSuite$.*
org.apache.spark.ui.jobs.StagePage.*
site$py.*
org.graalvm.*
com.oracle.graal.*
com.oracle.graalvm.*
com.oracle.svm.*
com.oracle.truffle.*
